<svg width="249" height="502" viewBox="0 0 249 502" fill="none" xmlns="http://www.w3.org/2000/svg">
<path fill-rule="evenodd" clip-rule="evenodd" d="M144.053 0.215379C194.788 0.215382 248.974 0.215333 248.974 0.215333C248.974 0.215333 248.974 25.2155 248.974 83.2155C248.974 141.215 248.974 174.215 248.974 244.215C248.974 314.215 248.974 354.215 248.974 432.215C248.974 510.215 248.974 500.215 248.974 500.215C248.974 500.215 186.126 500.215 146.528 500.215C106.93 500.215 67.5686 509.957 39.4914 464.598C9.88681 416.772 -7.07798 332.894 3.34899 259.508C13.5567 187.664 65.9696 169.802 89.9769 109.274C114.942 46.3311 105.9 31.802 144.053 0.215379Z" fill="#F0B239"/>
</svg>
