<svg width="503" height="501" viewBox="0 0 503 501" fill="none" xmlns="http://www.w3.org/2000/svg">
<path fill-rule="evenodd" clip-rule="evenodd" d="M291 -7.49468e-05C393.5 -7.43195e-05 502.972 -0.000125848 502.972 -0.000125848C502.972 -0.000125848 502.972 25 502.972 83C502.972 141 502.972 174 502.972 244C502.972 314 502.972 354 502.972 432C502.972 510 502.972 500 502.972 500C502.972 500 376 500 296 500C216 500 136.478 509.742 79.754 464.383C19.9439 416.556 -14.3301 332.679 6.73555 259.292C27.3583 187.449 133.248 169.587 181.75 109.059C232.187 46.1157 213.918 31.5866 291 -7.49468e-05Z" fill="#F0B239"/>
</svg>
